id;original_title;title;imdb_id;tagline;overview;release_date;status;country;duration;language;avg_rating;rating_count;budget;revenue
56f3e1b4-98f5-4c66-b6c8-0ef15d51d6d0;The Avengers;The Avengers;0848228;Avengers Assemble!;Earth's mightiest heroes must come together and learn to fight as a team if they are going to stop the mischievous Loki and his alien army from enslaving humanity.;2012-04-11;RELEASED;USA;143;English;4;125;220000000;1518812988
7e76e6cd-0741-42ab-9eec-733406667c0d;Avengers: Infinity War;Avengers: Infinity War;4154756;Destiny arrives.;The Avengers and their allies must be willing to sacrifice all in an attempt to defeat the powerful Thanos before his blitz of devastation and ruin puts an end to the universe.;2018-04-23;RELEASED;USA;149;English;4.25;425;321000000;2048359754
a97cc17e-dc51-4acc-aa2e-ceaa53754944;Avengers: Endgame;Avengers: Endgame;4154796;Nothing can prepare you for the end.;After the devastating events of Avengers: Infinity War                                                                                                                                                                                  ,the universe is in ruins. With the help of remaining allies,the Avengers assemble once more in order to reverse Thanos' actions and restore balance to the universe.;2019-04-22;RELEASED;USA;181;English;4.2;832;356000000;2797800564